Jimenez Palmer Coral Paper Analysis
…
## # A tibble: 6 x 4
## # Groups:   site [9]
##   site  yr    coralspecies proportion
##   <fct> <fct> <chr>             <dbl>
## 1 coc   1996  poc             0.0638 
## 2 coc   1996  pav             0.606  
## 3 coc   1996  por             0.0494 
## 4 coc   1996  ps              0.00913
## 5 coc   1996  gar             0.263  
## 6 coc   1996  tub             0.00923

#Check Sums Oer Site/Year 
  coralsum_long %>% group_by(site,yr) %>% summarise(sum=sum(proportion))

## # A tibble: 126 x 3
## # Groups:   site [9]
##    site  yr      sum
##    <fct> <fct> <dbl>
##  1 ""    1994      0
##  2 ""    1995      0
##  3 ""    1996      0
##  4 ""    1997      0
##  5 ""    1998      0
##  6 ""    2001      0
##  7 ""    2002      0
##  8 ""    2006      0
##  9 ""    2007      0
## 10 ""    2008      0
## #  with 116 more rows
…
